<?xml version="1.0" encoding="utf-8"?>
<!-- Generator: Adobe Illustrator 15.1.0, SVG Export Plug-In . SVG Version: 6.00 Build 0)  -->
<!DOCTYPE svg PUBLIC "-//W3C//DTD SVG 1.1//EN" "http://www.w3.org/Graphics/SVG/1.1/DTD/svg11.dtd">
<svg version="1.1" id="Layer_1" xmlns="http://www.w3.org/2000/svg" xmlns:xlink="http://www.w3.org/1999/xlink" x="0px" y="0px"
	 width="60px" height="60px" viewBox="0 0 60 60" enable-background="new 0 0 60 60" xml:space="preserve">
<rect fill="#D1D3D4" width="60" height="60"/>
<circle fill="#414042" cx="30" cy="24" r="16.875"/>
<path fill="#414042" d="M5,60c0,0-0.25-13.375,12.25-20.75c12.625,10.875,25.5,0,25.5,0s12,6.5,12.125,20.75C45.125,60,5,60,5,60z"
	/>
</svg>
